AR lfsr behavioral /home/daaguirre/lfsr/lfsr.vhd sub00/vhpl01 1451317412
AR dado behavioral /home/daaguirre/lfsr/dado.vhd sub00/vhpl03 1451317414
EN dado NULL /home/daaguirre/lfsr/dado.vhd sub00/vhpl02 1451317413
EN lfsr NULL /home/daaguirre/lfsr/lfsr.vhd sub00/vhpl00 1451317411
